{
  "buildFiles": [
    "D:\\Chand\\Digit9\\Belgium\\Sources\\AndroidBelgiumEida\\app\\src\\main\\jni\\Android.mk",
    "D:\\Chand\\Digit9\\Belgium\\Sources\\AndroidBelgiumEida\\app\\src\\main\\jni\\Application.mk"
  ],
  "cleanCommands": [
    "C:\\Users\\Chand\\AppData\\Local\\Android\\Sdk\\ndk-bundle\\ndk-build.cmd NDK_PROJECT_PATH\u003dnull APP_BUILD_SCRIPT\u003dD:\\Chand\\Digit9\\Belgium\\Sources\\AndroidBelgiumEida\\app\\src\\main\\jni\\Android.mk NDK_APPLICATION_MK\u003dD:\\Chand\\Digit9\\Belgium\\Sources\\AndroidBelgiumEida\\app\\src\\main\\jni\\Application.mk APP_ABI\u003darmeabi-v7a NDK_ALL_ABIS\u003darmeabi-v7a NDK_DEBUG\u003d0 APP_PLATFORM\u003dandroid-21 NDK_OUT\u003dD:/Chand/Digit9/Belgium/Sources/AndroidBelgiumEida/app/build/intermediates/ndkBuild/universal/release/obj NDK_LIBS_OUT\u003dD:\\Chand\\Digit9\\Belgium\\Sources\\AndroidBelgiumEida\\app\\build\\intermediates\\ndkBuild\\universal\\release\\lib clean"
  ],
  "libraries": {
    "VCOMDroid-universalRelease-armeabi-v7a": {
      "buildCommand": "C:\\Users\\Chand\\AppData\\Local\\Android\\Sdk\\ndk-bundle\\ndk-build.cmd NDK_PROJECT_PATH\u003dnull APP_BUILD_SCRIPT\u003dD:\\Chand\\Digit9\\Belgium\\Sources\\AndroidBelgiumEida\\app\\src\\main\\jni\\Android.mk NDK_APPLICATION_MK\u003dD:\\Chand\\Digit9\\Belgium\\Sources\\AndroidBelgiumEida\\app\\src\\main\\jni\\Application.mk APP_ABI\u003darmeabi-v7a NDK_ALL_ABIS\u003darmeabi-v7a NDK_DEBUG\u003d0 APP_PLATFORM\u003dandroid-21 NDK_OUT\u003dD:/Chand/Digit9/Belgium/Sources/AndroidBelgiumEida/app/build/intermediates/ndkBuild/universal/release/obj NDK_LIBS_OUT\u003dD:\\Chand\\Digit9\\Belgium\\Sources\\AndroidBelgiumEida\\app\\build\\intermediates\\ndkBuild\\universal\\release\\lib D:/Chand/Digit9/Belgium/Sources/AndroidBelgiumEida/app/build/intermediates/ndkBuild/universal/release/obj/local/armeabi-v7a/libVCOMDroid.so",
      "toolchain": "toolchain-armeabi-v7a",
      "abi": "armeabi-v7a",
      "artifactName": "VCOMDroid",
      "files": [
        {
          "src": "D:\\Chand\\Digit9\\Belgium\\Sources\\AndroidBelgiumEida\\app\\src\\main\\jni\\.\\VCOMExample\\src\\Device.cpp",
          "flags": "-gcc-toolchain C:/Users/Chand/AppData/Local/Android/Sdk/ndk-bundle/build//../toolchains/arm-linux-androideabi-4.9/prebuilt/windows-x86_64 -fpic -ffunction-sections -funwind-tables -fstack-protector-strong -Wno-invalid-command-line-argument -Wno-unused-command-line-argument -no-canonical-prefixes -fno-integrated-as -g -target armv7-none-linux-androideabi21 -march\u003darmv7-a -mfloat-abi\u003dsoftfp -mfpu\u003dvfpv3-d16 -fno-exceptions -fno-rtti -mthumb -Os -DNDEBUG -IC:/Users/Chand/AppData/Local/Android/Sdk/ndk-bundle/build//../sources/cxx-stl/stlport/stlport -IC:/Users/Chand/AppData/Local/Android/Sdk/ndk-bundle/build//../sources/cxx-stl//gabi++/include -ID:/Chand/Digit9/Belgium/Sources/AndroidBelgiumEida/app/src/main/jni -frtti -fexceptions -DANDROID -W -Wall -fPIC -DPIC -Ijni/VCOMExample/API -Ijni/VCOMExample/include -Ijni/libusb/include -D__ANDROID_API__\u003d21 -Wa,--noexecstack -Wformat -Werror\u003dformat-security -frtti --sysroot C:/Users/Chand/AppData/Local/Android/Sdk/ndk-bundle/build//../sysroot -isystem C:/Users/Chand/AppData/Local/Android/Sdk/ndk-bundle/build//../sysroot/usr/include/arm-linux-androideabi"
        },
        {
          "src": "D:\\Chand\\Digit9\\Belgium\\Sources\\AndroidBelgiumEida\\app\\src\\main\\jni\\.\\VCOMExample\\src\\DumpLog.cpp",
          "flags": "-gcc-toolchain C:/Users/Chand/AppData/Local/Android/Sdk/ndk-bundle/build//../toolchains/arm-linux-androideabi-4.9/prebuilt/windows-x86_64 -fpic -ffunction-sections -funwind-tables -fstack-protector-strong -Wno-invalid-command-line-argument -Wno-unused-command-line-argument -no-canonical-prefixes -fno-integrated-as -g -target armv7-none-linux-androideabi21 -march\u003darmv7-a -mfloat-abi\u003dsoftfp -mfpu\u003dvfpv3-d16 -fno-exceptions -fno-rtti -mthumb -Os -DNDEBUG -IC:/Users/Chand/AppData/Local/Android/Sdk/ndk-bundle/build//../sources/cxx-stl/stlport/stlport -IC:/Users/Chand/AppData/Local/Android/Sdk/ndk-bundle/build//../sources/cxx-stl//gabi++/include -ID:/Chand/Digit9/Belgium/Sources/AndroidBelgiumEida/app/src/main/jni -frtti -fexceptions -DANDROID -W -Wall -fPIC -DPIC -Ijni/VCOMExample/API -Ijni/VCOMExample/include -Ijni/libusb/include -D__ANDROID_API__\u003d21 -Wa,--noexecstack -Wformat -Werror\u003dformat-security -frtti --sysroot C:/Users/Chand/AppData/Local/Android/Sdk/ndk-bundle/build//../sysroot -isystem C:/Users/Chand/AppData/Local/Android/Sdk/ndk-bundle/build//../sysroot/usr/include/arm-linux-androideabi"
        },
        {
          "src": "D:\\Chand\\Digit9\\Belgium\\Sources\\AndroidBelgiumEida\\app\\src\\main\\jni\\.\\VCOMExample\\src\\ICmd.cpp",
          "flags": "-gcc-toolchain C:/Users/Chand/AppData/Local/Android/Sdk/ndk-bundle/build//../toolchains/arm-linux-androideabi-4.9/prebuilt/windows-x86_64 -fpic -ffunction-sections -funwind-tables -fstack-protector-strong -Wno-invalid-command-line-argument -Wno-unused-command-line-argument -no-canonical-prefixes -fno-integrated-as -g -target armv7-none-linux-androideabi21 -march\u003darmv7-a -mfloat-abi\u003dsoftfp -mfpu\u003dvfpv3-d16 -fno-exceptions -fno-rtti -mthumb -Os -DNDEBUG -IC:/Users/Chand/AppData/Local/Android/Sdk/ndk-bundle/build//../sources/cxx-stl/stlport/stlport -IC:/Users/Chand/AppData/Local/Android/Sdk/ndk-bundle/build//../sources/cxx-stl//gabi++/include -ID:/Chand/Digit9/Belgium/Sources/AndroidBelgiumEida/app/src/main/jni -frtti -fexceptions -DANDROID -W -Wall -fPIC -DPIC -Ijni/VCOMExample/API -Ijni/VCOMExample/include -Ijni/libusb/include -D__ANDROID_API__\u003d21 -Wa,--noexecstack -Wformat -Werror\u003dformat-security -frtti --sysroot C:/Users/Chand/AppData/Local/Android/Sdk/ndk-bundle/build//../sysroot -isystem C:/Users/Chand/AppData/Local/Android/Sdk/ndk-bundle/build//../sysroot/usr/include/arm-linux-androideabi"
        },
        {
          "src": "D:\\Chand\\Digit9\\Belgium\\Sources\\AndroidBelgiumEida\\app\\src\\main\\jni\\.\\VCOMExample\\src\\STranRS232.cpp",
          "flags": "-gcc-toolchain C:/Users/Chand/AppData/Local/Android/Sdk/ndk-bundle/build//../toolchains/arm-linux-androideabi-4.9/prebuilt/windows-x86_64 -fpic -ffunction-sections -funwind-tables -fstack-protector-strong -Wno-invalid-command-line-argument -Wno-unused-command-line-argument -no-canonical-prefixes -fno-integrated-as -g -target armv7-none-linux-androideabi21 -march\u003darmv7-a -mfloat-abi\u003dsoftfp -mfpu\u003dvfpv3-d16 -fno-exceptions -fno-rtti -mthumb -Os -DNDEBUG -IC:/Users/Chand/AppData/Local/Android/Sdk/ndk-bundle/build//../sources/cxx-stl/stlport/stlport -IC:/Users/Chand/AppData/Local/Android/Sdk/ndk-bundle/build//../sources/cxx-stl//gabi++/include -ID:/Chand/Digit9/Belgium/Sources/AndroidBelgiumEida/app/src/main/jni -frtti -fexceptions -DANDROID -W -Wall -fPIC -DPIC -Ijni/VCOMExample/API -Ijni/VCOMExample/include -Ijni/libusb/include -D__ANDROID_API__\u003d21 -Wa,--noexecstack -Wformat -Werror\u003dformat-security -frtti --sysroot C:/Users/Chand/AppData/Local/Android/Sdk/ndk-bundle/build//../sysroot -isystem C:/Users/Chand/AppData/Local/Android/Sdk/ndk-bundle/build//../sysroot/usr/include/arm-linux-androideabi"
        },
        {
          "src": "D:\\Chand\\Digit9\\Belgium\\Sources\\AndroidBelgiumEida\\app\\src\\main\\jni\\.\\VCOMExample\\src\\SerialComPOSIX.cpp",
          "flags": "-gcc-toolchain C:/Users/Chand/AppData/Local/Android/Sdk/ndk-bundle/build//../toolchains/arm-linux-androideabi-4.9/prebuilt/windows-x86_64 -fpic -ffunction-sections -funwind-tables -fstack-protector-strong -Wno-invalid-command-line-argument -Wno-unused-command-line-argument -no-canonical-prefixes -fno-integrated-as -g -target armv7-none-linux-androideabi21 -march\u003darmv7-a -mfloat-abi\u003dsoftfp -mfpu\u003dvfpv3-d16 -fno-exceptions -fno-rtti -mthumb -Os -DNDEBUG -IC:/Users/Chand/AppData/Local/Android/Sdk/ndk-bundle/build//../sources/cxx-stl/stlport/stlport -IC:/Users/Chand/AppData/Local/Android/Sdk/ndk-bundle/build//../sources/cxx-stl//gabi++/include -ID:/Chand/Digit9/Belgium/Sources/AndroidBelgiumEida/app/src/main/jni -frtti -fexceptions -DANDROID -W -Wall -fPIC -DPIC -Ijni/VCOMExample/API -Ijni/VCOMExample/include -Ijni/libusb/include -D__ANDROID_API__\u003d21 -Wa,--noexecstack -Wformat -Werror\u003dformat-security -frtti --sysroot C:/Users/Chand/AppData/Local/Android/Sdk/ndk-bundle/build//../sysroot -isystem C:/Users/Chand/AppData/Local/Android/Sdk/ndk-bundle/build//../sysroot/usr/include/arm-linux-androideabi"
        },
        {
          "src": "D:\\Chand\\Digit9\\Belgium\\Sources\\AndroidBelgiumEida\\app\\src\\main\\jni\\.\\VCOMExample\\src\\TransportLibUSB.cpp",
          "flags": "-gcc-toolchain C:/Users/Chand/AppData/Local/Android/Sdk/ndk-bundle/build//../toolchains/arm-linux-androideabi-4.9/prebuilt/windows-x86_64 -fpic -ffunction-sections -funwind-tables -fstack-protector-strong -Wno-invalid-command-line-argument -Wno-unused-command-line-argument -no-canonical-prefixes -fno-integrated-as -g -target armv7-none-linux-androideabi21 -march\u003darmv7-a -mfloat-abi\u003dsoftfp -mfpu\u003dvfpv3-d16 -fno-exceptions -fno-rtti -mthumb -Os -DNDEBUG -IC:/Users/Chand/AppData/Local/Android/Sdk/ndk-bundle/build//../sources/cxx-stl/stlport/stlport -IC:/Users/Chand/AppData/Local/Android/Sdk/ndk-bundle/build//../sources/cxx-stl//gabi++/include -ID:/Chand/Digit9/Belgium/Sources/AndroidBelgiumEida/app/src/main/jni -frtti -fexceptions -DANDROID -W -Wall -fPIC -DPIC -Ijni/VCOMExample/API -Ijni/VCOMExample/include -Ijni/libusb/include -D__ANDROID_API__\u003d21 -Wa,--noexecstack -Wformat -Werror\u003dformat-security -frtti --sysroot C:/Users/Chand/AppData/Local/Android/Sdk/ndk-bundle/build//../sysroot -isystem C:/Users/Chand/AppData/Local/Android/Sdk/ndk-bundle/build//../sysroot/usr/include/arm-linux-androideabi"
        },
        {
          "src": "D:\\Chand\\Digit9\\Belgium\\Sources\\AndroidBelgiumEida\\app\\src\\main\\jni\\.\\VCOMExample\\src\\TransportRS232.cpp",
          "flags": "-gcc-toolchain C:/Users/Chand/AppData/Local/Android/Sdk/ndk-bundle/build//../toolchains/arm-linux-androideabi-4.9/prebuilt/windows-x86_64 -fpic -ffunction-sections -funwind-tables -fstack-protector-strong -Wno-invalid-command-line-argument -Wno-unused-command-line-argument -no-canonical-prefixes -fno-integrated-as -g -target armv7-none-linux-androideabi21 -march\u003darmv7-a -mfloat-abi\u003dsoftfp -mfpu\u003dvfpv3-d16 -fno-exceptions -fno-rtti -mthumb -Os -DNDEBUG -IC:/Users/Chand/AppData/Local/Android/Sdk/ndk-bundle/build//../sources/cxx-stl/stlport/stlport -IC:/Users/Chand/AppData/Local/Android/Sdk/ndk-bundle/build//../sources/cxx-stl//gabi++/include -ID:/Chand/Digit9/Belgium/Sources/AndroidBelgiumEida/app/src/main/jni -frtti -fexceptions -DANDROID -W -Wall -fPIC -DPIC -Ijni/VCOMExample/API -Ijni/VCOMExample/include -Ijni/libusb/include -D__ANDROID_API__\u003d21 -Wa,--noexecstack -Wformat -Werror\u003dformat-security -frtti --sysroot C:/Users/Chand/AppData/Local/Android/Sdk/ndk-bundle/build//../sysroot -isystem C:/Users/Chand/AppData/Local/Android/Sdk/ndk-bundle/build//../sysroot/usr/include/arm-linux-androideabi"
        },
        {
          "src": "D:\\Chand\\Digit9\\Belgium\\Sources\\AndroidBelgiumEida\\app\\src\\main\\jni\\.\\VCOMExample\\src\\TransportRS232_NX.cpp",
          "flags": "-gcc-toolchain C:/Users/Chand/AppData/Local/Android/Sdk/ndk-bundle/build//../toolchains/arm-linux-androideabi-4.9/prebuilt/windows-x86_64 -fpic -ffunction-sections -funwind-tables -fstack-protector-strong -Wno-invalid-command-line-argument -Wno-unused-command-line-argument -no-canonical-prefixes -fno-integrated-as -g -target armv7-none-linux-androideabi21 -march\u003darmv7-a -mfloat-abi\u003dsoftfp -mfpu\u003dvfpv3-d16 -fno-exceptions -fno-rtti -mthumb -Os -DNDEBUG -IC:/Users/Chand/AppData/Local/Android/Sdk/ndk-bundle/build//../sources/cxx-stl/stlport/stlport -IC:/Users/Chand/AppData/Local/Android/Sdk/ndk-bundle/build//../sources/cxx-stl//gabi++/include -ID:/Chand/Digit9/Belgium/Sources/AndroidBelgiumEida/app/src/main/jni -frtti -fexceptions -DANDROID -W -Wall -fPIC -DPIC -Ijni/VCOMExample/API -Ijni/VCOMExample/include -Ijni/libusb/include -D__ANDROID_API__\u003d21 -Wa,--noexecstack -Wformat -Werror\u003dformat-security -frtti --sysroot C:/Users/Chand/AppData/Local/Android/Sdk/ndk-bundle/build//../sysroot -isystem C:/Users/Chand/AppData/Local/Android/Sdk/ndk-bundle/build//../sysroot/usr/include/arm-linux-androideabi"
        },
        {
          "src": "D:\\Chand\\Digit9\\Belgium\\Sources\\AndroidBelgiumEida\\app\\src\\main\\jni\\.\\VCOMExample\\src\\TransportSEPOSIX.cpp",
          "flags": "-gcc-toolchain C:/Users/Chand/AppData/Local/Android/Sdk/ndk-bundle/build//../toolchains/arm-linux-androideabi-4.9/prebuilt/windows-x86_64 -fpic -ffunction-sections -funwind-tables -fstack-protector-strong -Wno-invalid-command-line-argument -Wno-unused-command-line-argument -no-canonical-prefixes -fno-integrated-as -g -target armv7-none-linux-androideabi21 -march\u003darmv7-a -mfloat-abi\u003dsoftfp -mfpu\u003dvfpv3-d16 -fno-exceptions -fno-rtti -mthumb -Os -DNDEBUG -IC:/Users/Chand/AppData/Local/Android/Sdk/ndk-bundle/build//../sources/cxx-stl/stlport/stlport -IC:/Users/Chand/AppData/Local/Android/Sdk/ndk-bundle/build//../sources/cxx-stl//gabi++/include -ID:/Chand/Digit9/Belgium/Sources/AndroidBelgiumEida/app/src/main/jni -frtti -fexceptions -DANDROID -W -Wall -fPIC -DPIC -Ijni/VCOMExample/API -Ijni/VCOMExample/include -Ijni/libusb/include -D__ANDROID_API__\u003d21 -Wa,--noexecstack -Wformat -Werror\u003dformat-security -frtti --sysroot C:/Users/Chand/AppData/Local/Android/Sdk/ndk-bundle/build//../sysroot -isystem C:/Users/Chand/AppData/Local/Android/Sdk/ndk-bundle/build//../sysroot/usr/include/arm-linux-androideabi"
        },
        {
          "src": "D:\\Chand\\Digit9\\Belgium\\Sources\\AndroidBelgiumEida\\app\\src\\main\\jni\\.\\VCOMExample\\src\\V100Cmd.cpp",
          "flags": "-gcc-toolchain C:/Users/Chand/AppData/Local/Android/Sdk/ndk-bundle/build//../toolchains/arm-linux-androideabi-4.9/prebuilt/windows-x86_64 -fpic -ffunction-sections -funwind-tables -fstack-protector-strong -Wno-invalid-command-line-argument -Wno-unused-command-line-argument -no-canonical-prefixes -fno-integrated-as -g -target armv7-none-linux-androideabi21 -march\u003darmv7-a -mfloat-abi\u003dsoftfp -mfpu\u003dvfpv3-d16 -fno-exceptions -fno-rtti -mthumb -Os -DNDEBUG -IC:/Users/Chand/AppData/Local/Android/Sdk/ndk-bundle/build//../sources/cxx-stl/stlport/stlport -IC:/Users/Chand/AppData/Local/Android/Sdk/ndk-bundle/build//../sources/cxx-stl//gabi++/include -ID:/Chand/Digit9/Belgium/Sources/AndroidBelgiumEida/app/src/main/jni -frtti -fexceptions -DANDROID -W -Wall -fPIC -DPIC -Ijni/VCOMExample/API -Ijni/VCOMExample/include -Ijni/libusb/include -D__ANDROID_API__\u003d21 -Wa,--noexecstack -Wformat -Werror\u003dformat-security -frtti --sysroot C:/Users/Chand/AppData/Local/Android/Sdk/ndk-bundle/build//../sysroot -isystem C:/Users/Chand/AppData/Local/Android/Sdk/ndk-bundle/build//../sysroot/usr/include/arm-linux-androideabi"
        },
        {
          "src": "D:\\Chand\\Digit9\\Belgium\\Sources\\AndroidBelgiumEida\\app\\src\\main\\jni\\.\\VCOMExample\\src\\V100CommandHandler.cpp",
          "flags": "-gcc-toolchain C:/Users/Chand/AppData/Local/Android/Sdk/ndk-bundle/build//../toolchains/arm-linux-androideabi-4.9/prebuilt/windows-x86_64 -fpic -ffunction-sections -funwind-tables -fstack-protector-strong -Wno-invalid-command-line-argument -Wno-unused-command-line-argument -no-canonical-prefixes -fno-integrated-as -g -target armv7-none-linux-androideabi21 -march\u003darmv7-a -mfloat-abi\u003dsoftfp -mfpu\u003dvfpv3-d16 -fno-exceptions -fno-rtti -mthumb -Os -DNDEBUG -IC:/Users/Chand/AppData/Local/Android/Sdk/ndk-bundle/build//../sources/cxx-stl/stlport/stlport -IC:/Users/Chand/AppData/Local/Android/Sdk/ndk-bundle/build//../sources/cxx-stl//gabi++/include -ID:/Chand/Digit9/Belgium/Sources/AndroidBelgiumEida/app/src/main/jni -frtti -fexceptions -DANDROID -W -Wall -fPIC -DPIC -Ijni/VCOMExample/API -Ijni/VCOMExample/include -Ijni/libusb/include -D__ANDROID_API__\u003d21 -Wa,--noexecstack -Wformat -Werror\u003dformat-security -frtti --sysroot C:/Users/Chand/AppData/Local/Android/Sdk/ndk-bundle/build//../sysroot -isystem C:/Users/Chand/AppData/Local/Android/Sdk/ndk-bundle/build//../sysroot/usr/include/arm-linux-androideabi"
        },
        {
          "src": "D:\\Chand\\Digit9\\Belgium\\Sources\\AndroidBelgiumEida\\app\\src\\main\\jni\\.\\VCOMExample\\src\\V100DeviceHandler.cpp",
          "flags": "-gcc-toolchain C:/Users/Chand/AppData/Local/Android/Sdk/ndk-bundle/build//../toolchains/arm-linux-androideabi-4.9/prebuilt/windows-x86_64 -fpic -ffunction-sections -funwind-tables -fstack-protector-strong -Wno-invalid-command-line-argument -Wno-unused-command-line-argument -no-canonical-prefixes -fno-integrated-as -g -target armv7-none-linux-androideabi21 -march\u003darmv7-a -mfloat-abi\u003dsoftfp -mfpu\u003dvfpv3-d16 -fno-exceptions -fno-rtti -mthumb -Os -DNDEBUG -IC:/Users/Chand/AppData/Local/Android/Sdk/ndk-bundle/build//../sources/cxx-stl/stlport/stlport -IC:/Users/Chand/AppData/Local/Android/Sdk/ndk-bundle/build//../sources/cxx-stl//gabi++/include -ID:/Chand/Digit9/Belgium/Sources/AndroidBelgiumEida/app/src/main/jni -frtti -fexceptions -DANDROID -W -Wall -fPIC -DPIC -Ijni/VCOMExample/API -Ijni/VCOMExample/include -Ijni/libusb/include -D__ANDROID_API__\u003d21 -Wa,--noexecstack -Wformat -Werror\u003dformat-security -frtti --sysroot C:/Users/Chand/AppData/Local/Android/Sdk/ndk-bundle/build//../sysroot -isystem C:/Users/Chand/AppData/Local/Android/Sdk/ndk-bundle/build//../sysroot/usr/include/arm-linux-androideabi"
        },
        {
          "src": "D:\\Chand\\Digit9\\Belgium\\Sources\\AndroidBelgiumEida\\app\\src\\main\\jni\\.\\VCOMExample\\src\\V100IDCmd.cpp",
          "flags": "-gcc-toolchain C:/Users/Chand/AppData/Local/Android/Sdk/ndk-bundle/build//../toolchains/arm-linux-androideabi-4.9/prebuilt/windows-x86_64 -fpic -ffunction-sections -funwind-tables -fstack-protector-strong -Wno-invalid-command-line-argument -Wno-unused-command-line-argument -no-canonical-prefixes -fno-integrated-as -g -target armv7-none-linux-androideabi21 -march\u003darmv7-a -mfloat-abi\u003dsoftfp -mfpu\u003dvfpv3-d16 -fno-exceptions -fno-rtti -mthumb -Os -DNDEBUG -IC:/Users/Chand/AppData/Local/Android/Sdk/ndk-bundle/build//../sources/cxx-stl/stlport/stlport -IC:/Users/Chand/AppData/Local/Android/Sdk/ndk-bundle/build//../sources/cxx-stl//gabi++/include -ID:/Chand/Digit9/Belgium/Sources/AndroidBelgiumEida/app/src/main/jni -frtti -fexceptions -DANDROID -W -Wall -fPIC -DPIC -Ijni/VCOMExample/API -Ijni/VCOMExample/include -Ijni/libusb/include -D__ANDROID_API__\u003d21 -Wa,--noexecstack -Wformat -Werror\u003dformat-security -frtti --sysroot C:/Users/Chand/AppData/Local/Android/Sdk/ndk-bundle/build//../sysroot -isystem C:/Users/Chand/AppData/Local/Android/Sdk/ndk-bundle/build//../sysroot/usr/include/arm-linux-androideabi"
        },
        {
          "src": "D:\\Chand\\Digit9\\Belgium\\Sources\\AndroidBelgiumEida\\app\\src\\main\\jni\\.\\VCOMExample\\src\\VCOMCore.cpp",
          "flags": "-gcc-toolchain C:/Users/Chand/AppData/Local/Android/Sdk/ndk-bundle/build//../toolchains/arm-linux-androideabi-4.9/prebuilt/windows-x86_64 -fpic -ffunction-sections -funwind-tables -fstack-protector-strong -Wno-invalid-command-line-argument -Wno-unused-command-line-argument -no-canonical-prefixes -fno-integrated-as -g -target armv7-none-linux-androideabi21 -march\u003darmv7-a -mfloat-abi\u003dsoftfp -mfpu\u003dvfpv3-d16 -fno-exceptions -fno-rtti -mthumb -Os -DNDEBUG -IC:/Users/Chand/AppData/Local/Android/Sdk/ndk-bundle/build//../sources/cxx-stl/stlport/stlport -IC:/Users/Chand/AppData/Local/Android/Sdk/ndk-bundle/build//../sources/cxx-stl//gabi++/include -ID:/Chand/Digit9/Belgium/Sources/AndroidBelgiumEida/app/src/main/jni -frtti -fexceptions -DANDROID -W -Wall -fPIC -DPIC -Ijni/VCOMExample/API -Ijni/VCOMExample/include -Ijni/libusb/include -D__ANDROID_API__\u003d21 -Wa,--noexecstack -Wformat -Werror\u003dformat-security -frtti --sysroot C:/Users/Chand/AppData/Local/Android/Sdk/ndk-bundle/build//../sysroot -isystem C:/Users/Chand/AppData/Local/Android/Sdk/ndk-bundle/build//../sysroot/usr/include/arm-linux-androideabi"
        },
        {
          "src": "D:\\Chand\\Digit9\\Belgium\\Sources\\AndroidBelgiumEida\\app\\src\\main\\jni\\.\\VCOMExample\\src\\XModem.cpp",
          "flags": "-gcc-toolchain C:/Users/Chand/AppData/Local/Android/Sdk/ndk-bundle/build//../toolchains/arm-linux-androideabi-4.9/prebuilt/windows-x86_64 -fpic -ffunction-sections -funwind-tables -fstack-protector-strong -Wno-invalid-command-line-argument -Wno-unused-command-line-argument -no-canonical-prefixes -fno-integrated-as -g -target armv7-none-linux-androideabi21 -march\u003darmv7-a -mfloat-abi\u003dsoftfp -mfpu\u003dvfpv3-d16 -fno-exceptions -fno-rtti -mthumb -Os -DNDEBUG -IC:/Users/Chand/AppData/Local/Android/Sdk/ndk-bundle/build//../sources/cxx-stl/stlport/stlport -IC:/Users/Chand/AppData/Local/Android/Sdk/ndk-bundle/build//../sources/cxx-stl//gabi++/include -ID:/Chand/Digit9/Belgium/Sources/AndroidBelgiumEida/app/src/main/jni -frtti -fexceptions -DANDROID -W -Wall -fPIC -DPIC -Ijni/VCOMExample/API -Ijni/VCOMExample/include -Ijni/libusb/include -D__ANDROID_API__\u003d21 -Wa,--noexecstack -Wformat -Werror\u003dformat-security -frtti --sysroot C:/Users/Chand/AppData/Local/Android/Sdk/ndk-bundle/build//../sysroot -isystem C:/Users/Chand/AppData/Local/Android/Sdk/ndk-bundle/build//../sysroot/usr/include/arm-linux-androideabi"
        },
        {
          "src": "D:\\Chand\\Digit9\\Belgium\\Sources\\AndroidBelgiumEida\\app\\src\\main\\jni\\.\\libusb\\os\\linux_usbfs.c",
          "flags": "-gcc-toolchain C:/Users/Chand/AppData/Local/Android/Sdk/ndk-bundle/build//../toolchains/arm-linux-androideabi-4.9/prebuilt/windows-x86_64 -fpic -ffunction-sections -funwind-tables -fstack-protector-strong -Wno-invalid-command-line-argument -Wno-unused-command-line-argument -no-canonical-prefixes -fno-integrated-as -g -target armv7-none-linux-androideabi21 -march\u003darmv7-a -mfloat-abi\u003dsoftfp -mfpu\u003dvfpv3-d16 -mthumb -Os -DNDEBUG -IC:/Users/Chand/AppData/Local/Android/Sdk/ndk-bundle/build//../sources/cxx-stl/stlport/stlport -IC:/Users/Chand/AppData/Local/Android/Sdk/ndk-bundle/build//../sources/cxx-stl//gabi++/include -ID:/Chand/Digit9/Belgium/Sources/AndroidBelgiumEida/app/src/main/jni -DANDROID -W -Wall -fPIC -DPIC -Ijni/VCOMExample/API -Ijni/VCOMExample/include -Ijni/libusb/include -D__ANDROID_API__\u003d21 -Wa,--noexecstack -Wformat -Werror\u003dformat-security --sysroot C:/Users/Chand/AppData/Local/Android/Sdk/ndk-bundle/build//../sysroot -isystem C:/Users/Chand/AppData/Local/Android/Sdk/ndk-bundle/build//../sysroot/usr/include/arm-linux-androideabi"
        },
        {
          "src": "D:\\Chand\\Digit9\\Belgium\\Sources\\AndroidBelgiumEida\\app\\src\\main\\jni\\.\\libusb\\src\\core.c",
          "flags": "-gcc-toolchain C:/Users/Chand/AppData/Local/Android/Sdk/ndk-bundle/build//../toolchains/arm-linux-androideabi-4.9/prebuilt/windows-x86_64 -fpic -ffunction-sections -funwind-tables -fstack-protector-strong -Wno-invalid-command-line-argument -Wno-unused-command-line-argument -no-canonical-prefixes -fno-integrated-as -g -target armv7-none-linux-androideabi21 -march\u003darmv7-a -mfloat-abi\u003dsoftfp -mfpu\u003dvfpv3-d16 -mthumb -Os -DNDEBUG -IC:/Users/Chand/AppData/Local/Android/Sdk/ndk-bundle/build//../sources/cxx-stl/stlport/stlport -IC:/Users/Chand/AppData/Local/Android/Sdk/ndk-bundle/build//../sources/cxx-stl//gabi++/include -ID:/Chand/Digit9/Belgium/Sources/AndroidBelgiumEida/app/src/main/jni -DANDROID -W -Wall -fPIC -DPIC -Ijni/VCOMExample/API -Ijni/VCOMExample/include -Ijni/libusb/include -D__ANDROID_API__\u003d21 -Wa,--noexecstack -Wformat -Werror\u003dformat-security --sysroot C:/Users/Chand/AppData/Local/Android/Sdk/ndk-bundle/build//../sysroot -isystem C:/Users/Chand/AppData/Local/Android/Sdk/ndk-bundle/build//../sysroot/usr/include/arm-linux-androideabi"
        },
        {
          "src": "D:\\Chand\\Digit9\\Belgium\\Sources\\AndroidBelgiumEida\\app\\src\\main\\jni\\.\\libusb\\src\\descriptor.c",
          "flags": "-gcc-toolchain C:/Users/Chand/AppData/Local/Android/Sdk/ndk-bundle/build//../toolchains/arm-linux-androideabi-4.9/prebuilt/windows-x86_64 -fpic -ffunction-sections -funwind-tables -fstack-protector-strong -Wno-invalid-command-line-argument -Wno-unused-command-line-argument -no-canonical-prefixes -fno-integrated-as -g -target armv7-none-linux-androideabi21 -march\u003darmv7-a -mfloat-abi\u003dsoftfp -mfpu\u003dvfpv3-d16 -mthumb -Os -DNDEBUG -IC:/Users/Chand/AppData/Local/Android/Sdk/ndk-bundle/build//../sources/cxx-stl/stlport/stlport -IC:/Users/Chand/AppData/Local/Android/Sdk/ndk-bundle/build//../sources/cxx-stl//gabi++/include -ID:/Chand/Digit9/Belgium/Sources/AndroidBelgiumEida/app/src/main/jni -DANDROID -W -Wall -fPIC -DPIC -Ijni/VCOMExample/API -Ijni/VCOMExample/include -Ijni/libusb/include -D__ANDROID_API__\u003d21 -Wa,--noexecstack -Wformat -Werror\u003dformat-security --sysroot C:/Users/Chand/AppData/Local/Android/Sdk/ndk-bundle/build//../sysroot -isystem C:/Users/Chand/AppData/Local/Android/Sdk/ndk-bundle/build//../sysroot/usr/include/arm-linux-androideabi"
        },
        {
          "src": "D:\\Chand\\Digit9\\Belgium\\Sources\\AndroidBelgiumEida\\app\\src\\main\\jni\\.\\libusb\\src\\io.c",
          "flags": "-gcc-toolchain C:/Users/Chand/AppData/Local/Android/Sdk/ndk-bundle/build//../toolchains/arm-linux-androideabi-4.9/prebuilt/windows-x86_64 -fpic -ffunction-sections -funwind-tables -fstack-protector-strong -Wno-invalid-command-line-argument -Wno-unused-command-line-argument -no-canonical-prefixes -fno-integrated-as -g -target armv7-none-linux-androideabi21 -march\u003darmv7-a -mfloat-abi\u003dsoftfp -mfpu\u003dvfpv3-d16 -mthumb -Os -DNDEBUG -IC:/Users/Chand/AppData/Local/Android/Sdk/ndk-bundle/build//../sources/cxx-stl/stlport/stlport -IC:/Users/Chand/AppData/Local/Android/Sdk/ndk-bundle/build//../sources/cxx-stl//gabi++/include -ID:/Chand/Digit9/Belgium/Sources/AndroidBelgiumEida/app/src/main/jni -DANDROID -W -Wall -fPIC -DPIC -Ijni/VCOMExample/API -Ijni/VCOMExample/include -Ijni/libusb/include -D__ANDROID_API__\u003d21 -Wa,--noexecstack -Wformat -Werror\u003dformat-security --sysroot C:/Users/Chand/AppData/Local/Android/Sdk/ndk-bundle/build//../sysroot -isystem C:/Users/Chand/AppData/Local/Android/Sdk/ndk-bundle/build//../sysroot/usr/include/arm-linux-androideabi"
        },
        {
          "src": "D:\\Chand\\Digit9\\Belgium\\Sources\\AndroidBelgiumEida\\app\\src\\main\\jni\\.\\libusb\\src\\sync.c",
          "flags": "-gcc-toolchain C:/Users/Chand/AppData/Local/Android/Sdk/ndk-bundle/build//../toolchains/arm-linux-androideabi-4.9/prebuilt/windows-x86_64 -fpic -ffunction-sections -funwind-tables -fstack-protector-strong -Wno-invalid-command-line-argument -Wno-unused-command-line-argument -no-canonical-prefixes -fno-integrated-as -g -target armv7-none-linux-androideabi21 -march\u003darmv7-a -mfloat-abi\u003dsoftfp -mfpu\u003dvfpv3-d16 -mthumb -Os -DNDEBUG -IC:/Users/Chand/AppData/Local/Android/Sdk/ndk-bundle/build//../sources/cxx-stl/stlport/stlport -IC:/Users/Chand/AppData/Local/Android/Sdk/ndk-bundle/build//../sources/cxx-stl//gabi++/include -ID:/Chand/Digit9/Belgium/Sources/AndroidBelgiumEida/app/src/main/jni -DANDROID -W -Wall -fPIC -DPIC -Ijni/VCOMExample/API -Ijni/VCOMExample/include -Ijni/libusb/include -D__ANDROID_API__\u003d21 -Wa,--noexecstack -Wformat -Werror\u003dformat-security --sysroot C:/Users/Chand/AppData/Local/Android/Sdk/ndk-bundle/build//../sysroot -isystem C:/Users/Chand/AppData/Local/Android/Sdk/ndk-bundle/build//../sysroot/usr/include/arm-linux-androideabi"
        },
        {
          "src": "D:\\Chand\\Digit9\\Belgium\\Sources\\AndroidBelgiumEida\\app\\src\\main\\jni\\.\\lumidigm_vcomdroid_VCOM.cpp",
          "flags": "-gcc-toolchain C:/Users/Chand/AppData/Local/Android/Sdk/ndk-bundle/build//../toolchains/arm-linux-androideabi-4.9/prebuilt/windows-x86_64 -fpic -ffunction-sections -funwind-tables -fstack-protector-strong -Wno-invalid-command-line-argument -Wno-unused-command-line-argument -no-canonical-prefixes -fno-integrated-as -g -target armv7-none-linux-androideabi21 -march\u003darmv7-a -mfloat-abi\u003dsoftfp -mfpu\u003dvfpv3-d16 -fno-exceptions -fno-rtti -mthumb -Os -DNDEBUG -IC:/Users/Chand/AppData/Local/Android/Sdk/ndk-bundle/build//../sources/cxx-stl/stlport/stlport -IC:/Users/Chand/AppData/Local/Android/Sdk/ndk-bundle/build//../sources/cxx-stl//gabi++/include -ID:/Chand/Digit9/Belgium/Sources/AndroidBelgiumEida/app/src/main/jni -frtti -fexceptions -DANDROID -W -Wall -fPIC -DPIC -Ijni/VCOMExample/API -Ijni/VCOMExample/include -Ijni/libusb/include -D__ANDROID_API__\u003d21 -Wa,--noexecstack -Wformat -Werror\u003dformat-security -frtti --sysroot C:/Users/Chand/AppData/Local/Android/Sdk/ndk-bundle/build//../sysroot -isystem C:/Users/Chand/AppData/Local/Android/Sdk/ndk-bundle/build//../sysroot/usr/include/arm-linux-androideabi"
        }
      ],
      "output": "D:\\Chand\\Digit9\\Belgium\\Sources\\AndroidBelgiumEida\\app\\build\\intermediates\\ndkBuild\\universal\\release\\obj\\local\\armeabi-v7a\\libVCOMDroid.so"
    }
  },
  "toolchains": {
    "toolchain-armeabi-v7a": {
      "cCompilerExecutable": "C:\\Users\\Chand\\AppData\\Local\\Android\\Sdk\\ndk-bundle\\build\\..\\toolchains\\llvm\\prebuilt\\windows-x86_64\\bin\\clang.exe",
      "cppCompilerExecutable": "C:\\Users\\Chand\\AppData\\Local\\Android\\Sdk\\ndk-bundle\\build\\..\\toolchains\\llvm\\prebuilt\\windows-x86_64\\bin\\clang++.exe"
    }
  },
  "cFileExtensions": [
    "c"
  ],
  "cppFileExtensions": [
    "cpp"
  ]
}