{
  "project_info": {
    "project_number": "254929755775",
    "firebase_url": "https://github-firebase-storage-2fe1d.firebaseio.com",
    "project_id": "github-firebase-storage-2fe1d",
    "storage_bucket": "github-firebase-storage-2fe1d.appspot.com"
  },
  "client": [
    {
      "client_info": {
        "mobilesdk_app_id": "1:254929755775:android:db2cf3166f187026",
        "android_client_info": {
          "package_name": "com.colors.appindex"
        }
      },
      "oauth_client": [
        {
          "client_id": "254929755775-r6rnbb6nlkkeaonjib6t76egco7hqk4l.apps.googleusercontent.com",
          "client_type": 1,
          "android_info": {
            "package_name": "com.colors.appindex",
            "certificate_hash": "51abc745bed679b5129971b77e390a1c010c91d4"
          }
        },
        {
          "client_id": "254929755775-rir86q1pbhrgdcj8qr1ck03jin8uds3b.apps.googleusercontent.com",
          "client_type": 3
        }
      ],
      "api_key": [
        {
          "current_key": "AIzaSyATdwr92EIUgEzi1O-3tZHJdSsOMfPYcW4"
        }
      ],
      "services": {
        "analytics_service": {
          "status": 1
        },
        "appinvite_service": {
          "status": 2,
          "other_platform_oauth_client": [
            {
              "client_id": "254929755775-rir86q1pbhrgdcj8qr1ck03jin8uds3b.apps.googleusercontent.com",
              "client_type": 3
            }
          ]
        },
        "ads_service": {
          "status": 2
        }
      }
    },
    {
      "client_info": {
        "mobilesdk_app_id": "1:254929755775:android:0b662307d48bb7d3",
        "android_client_info": {
          "package_name": "com.colors.easysms"
        }
      },
      "oauth_client": [
        {
          "client_id": "254929755775-2ttkgup4742bmq2g8i5cfihluj6vf56e.apps.googleusercontent.com",
          "client_type": 1,
          "android_info": {
            "package_name": "com.colors.easysms",
            "certificate_hash": "51abc745bed679b5129971b77e390a1c010c91d4"
          }
        },
        {
          "client_id": "254929755775-rir86q1pbhrgdcj8qr1ck03jin8uds3b.apps.googleusercontent.com",
          "client_type": 3
        }
      ],
      "api_key": [
        {
          "current_key": "AIzaSyATdwr92EIUgEzi1O-3tZHJdSsOMfPYcW4"
        }
      ],
      "services": {
        "analytics_service": {
          "status": 1
        },
        "appinvite_service": {
          "status": 2,
          "other_platform_oauth_client": [
            {
              "client_id": "254929755775-rir86q1pbhrgdcj8qr1ck03jin8uds3b.apps.googleusercontent.com",
              "client_type": 3
            }
          ]
        },
        "ads_service": {
          "status": 2
        }
      }
    },
    {
      "client_info": {
        "mobilesdk_app_id": "1:254929755775:android:00d6b069b34222bf",
        "android_client_info": {
          "package_name": "com.colors.fcmpubsub"
        }
      },
      "oauth_client": [
        {
          "client_id": "254929755775-qbcgfkog5vobqo9muecnp3g94gb65mv5.apps.googleusercontent.com",
          "client_type": 1,
          "android_info": {
            "package_name": "com.colors.fcmpubsub",
            "certificate_hash": "51abc745bed679b5129971b77e390a1c010c91d4"
          }
        },
        {
          "client_id": "254929755775-rir86q1pbhrgdcj8qr1ck03jin8uds3b.apps.googleusercontent.com",
          "client_type": 3
        }
      ],
      "api_key": [
        {
          "current_key": "AIzaSyATdwr92EIUgEzi1O-3tZHJdSsOMfPYcW4"
        }
      ],
      "services": {
        "analytics_service": {
          "status": 1
        },
        "appinvite_service": {
          "status": 2,
          "other_platform_oauth_client": [
            {
              "client_id": "254929755775-rir86q1pbhrgdcj8qr1ck03jin8uds3b.apps.googleusercontent.com",
              "client_type": 3
            }
          ]
        },
        "ads_service": {
          "status": 2
        }
      }
    },
    {
      "client_info": {
        "mobilesdk_app_id": "1:254929755775:android:1f11304ef407c425",
        "android_client_info": {
          "package_name": "com.colors.qrcodescanner"
        }
      },
      "oauth_client": [
        {
          "client_id": "254929755775-u8d81g1n2kpknbva7i71he58oul52j1b.apps.googleusercontent.com",
          "client_type": 1,
          "android_info": {
            "package_name": "com.colors.qrcodescanner",
            "certificate_hash": "51abc745bed679b5129971b77e390a1c010c91d4"
          }
        },
        {
          "client_id": "254929755775-rir86q1pbhrgdcj8qr1ck03jin8uds3b.apps.googleusercontent.com",
          "client_type": 3
        }
      ],
      "api_key": [
        {
          "current_key": "AIzaSyATdwr92EIUgEzi1O-3tZHJdSsOMfPYcW4"
        }
      ],
      "services": {
        "analytics_service": {
          "status": 1
        },
        "appinvite_service": {
          "status": 2,
          "other_platform_oauth_client": [
            {
              "client_id": "254929755775-rir86q1pbhrgdcj8qr1ck03jin8uds3b.apps.googleusercontent.com",
              "client_type": 3
            }
          ]
        },
        "ads_service": {
          "status": 2
        }
      }
    },
    {
      "client_info": {
        "mobilesdk_app_id": "1:254929755775:android:838f6e06c6327cb2",
        "android_client_info": {
          "package_name": "com.devlomi.firebasemlkittextrecognition"
        }
      },
      "oauth_client": [
        {
          "client_id": "254929755775-9sb2nq82jcvre1r4qahr5i6dllkthg6v.apps.googleusercontent.com",
          "client_type": 1,
          "android_info": {
            "package_name": "com.devlomi.firebasemlkittextrecognition",
            "certificate_hash": "51abc745bed679b5129971b77e390a1c010c91d4"
          }
        },
        {
          "client_id": "254929755775-rir86q1pbhrgdcj8qr1ck03jin8uds3b.apps.googleusercontent.com",
          "client_type": 3
        }
      ],
      "api_key": [
        {
          "current_key": "AIzaSyATdwr92EIUgEzi1O-3tZHJdSsOMfPYcW4"
        }
      ],
      "services": {
        "analytics_service": {
          "status": 1
        },
        "appinvite_service": {
          "status": 2,
          "other_platform_oauth_client": [
            {
              "client_id": "254929755775-rir86q1pbhrgdcj8qr1ck03jin8uds3b.apps.googleusercontent.com",
              "client_type": 3
            }
          ]
        },
        "ads_service": {
          "status": 2
        }
      }
    },
    {
      "client_info": {
        "mobilesdk_app_id": "1:254929755775:android:41d36a9f4fe6206b",
        "android_client_info": {
          "package_name": "com.diewland.card_autofill_mlkit"
        }
      },
      "oauth_client": [
        {
          "client_id": "254929755775-50glk5qelu6p1df208sqsij865qo71f6.apps.googleusercontent.com",
          "client_type": 1,
          "android_info": {
            "package_name": "com.diewland.card_autofill_mlkit",
            "certificate_hash": "51abc745bed679b5129971b77e390a1c010c91d4"
          }
        },
        {
          "client_id": "254929755775-rir86q1pbhrgdcj8qr1ck03jin8uds3b.apps.googleusercontent.com",
          "client_type": 3
        }
      ],
      "api_key": [
        {
          "current_key": "AIzaSyATdwr92EIUgEzi1O-3tZHJdSsOMfPYcW4"
        }
      ],
      "services": {
        "analytics_service": {
          "status": 1
        },
        "appinvite_service": {
          "status": 2,
          "other_platform_oauth_client": [
            {
              "client_id": "254929755775-rir86q1pbhrgdcj8qr1ck03jin8uds3b.apps.googleusercontent.com",
              "client_type": 3
            }
          ]
        },
        "ads_service": {
          "status": 2
        }
      }
    },
    {
      "client_info": {
        "mobilesdk_app_id": "1:254929755775:android:693c00b96c712e8c",
        "android_client_info": {
          "package_name": "com.google.firebase.codelab.mlkit"
        }
      },
      "oauth_client": [
        {
          "client_id": "254929755775-tjercjjjqqftp707i8k54heglf21glef.apps.googleusercontent.com",
          "client_type": 1,
          "android_info": {
            "package_name": "com.google.firebase.codelab.mlkit",
            "certificate_hash": "51abc745bed679b5129971b77e390a1c010c91d4"
          }
        },
        {
          "client_id": "254929755775-rir86q1pbhrgdcj8qr1ck03jin8uds3b.apps.googleusercontent.com",
          "client_type": 3
        }
      ],
      "api_key": [
        {
          "current_key": "AIzaSyATdwr92EIUgEzi1O-3tZHJdSsOMfPYcW4"
        }
      ],
      "services": {
        "analytics_service": {
          "status": 1
        },
        "appinvite_service": {
          "status": 2,
          "other_platform_oauth_client": [
            {
              "client_id": "254929755775-rir86q1pbhrgdcj8qr1ck03jin8uds3b.apps.googleusercontent.com",
              "client_type": 3
            }
          ]
        },
        "ads_service": {
          "status": 2
        }
      }
    },
    {
      "client_info": {
        "mobilesdk_app_id": "1:254929755775:android:0d9dfb7015a5c5c9",
        "android_client_info": {
          "package_name": "com.google.samples.quickstart.admobexample"
        }
      },
      "oauth_client": [
        {
          "client_id": "254929755775-iuvu4i9i6acug31bsrdf0202ev4olhpk.apps.googleusercontent.com",
          "client_type": 1,
          "android_info": {
            "package_name": "com.google.samples.quickstart.admobexample",
            "certificate_hash": "eab99dae4675e56c120ff02ab638a4b3251cef68"
          }
        },
        {
          "client_id": "254929755775-rir86q1pbhrgdcj8qr1ck03jin8uds3b.apps.googleusercontent.com",
          "client_type": 3
        }
      ],
      "api_key": [
        {
          "current_key": "AIzaSyATdwr92EIUgEzi1O-3tZHJdSsOMfPYcW4"
        }
      ],
      "services": {
        "analytics_service": {
          "status": 1
        },
        "appinvite_service": {
          "status": 2,
          "other_platform_oauth_client": [
            {
              "client_id": "254929755775-rir86q1pbhrgdcj8qr1ck03jin8uds3b.apps.googleusercontent.com",
              "client_type": 3
            }
          ]
        },
        "ads_service": {
          "status": 2
        }
      }
    },
    {
      "client_info": {
        "mobilesdk_app_id": "1:254929755775:android:37164980808add30",
        "android_client_info": {
          "package_name": "com.xyz.mlkitdemo"
        }
      },
      "oauth_client": [
        {
          "client_id": "254929755775-126s4o325q742g7jqip96lsvbb7rbhfl.apps.googleusercontent.com",
          "client_type": 1,
          "android_info": {
            "package_name": "com.xyz.mlkitdemo",
            "certificate_hash": "51abc745bed679b5129971b77e390a1c010c91d4"
          }
        },
        {
          "client_id": "254929755775-rir86q1pbhrgdcj8qr1ck03jin8uds3b.apps.googleusercontent.com",
          "client_type": 3
        }
      ],
      "api_key": [
        {
          "current_key": "AIzaSyATdwr92EIUgEzi1O-3tZHJdSsOMfPYcW4"
        }
      ],
      "services": {
        "analytics_service": {
          "status": 1
        },
        "appinvite_service": {
          "status": 2,
          "other_platform_oauth_client": [
            {
              "client_id": "254929755775-rir86q1pbhrgdcj8qr1ck03jin8uds3b.apps.googleusercontent.com",
              "client_type": 3
            }
          ]
        },
        "ads_service": {
          "status": 2
        }
      }
    },
    {
      "client_info": {
        "mobilesdk_app_id": "1:254929755775:android:d8e25e0844c1d5b8",
        "android_client_info": {
          "package_name": "lumidigm.captureandmatch"
        }
      },
      "oauth_client": [
        {
          "client_id": "254929755775-vnubi4mbi0g0k37d8ke9q42q10jvccnv.apps.googleusercontent.com",
          "client_type": 1,
          "android_info": {
            "package_name": "lumidigm.captureandmatch",
            "certificate_hash": "b1a8e14018bf50ab89d9e58eb863b5154f6e2507"
          }
        },
        {
          "client_id": "254929755775-rir86q1pbhrgdcj8qr1ck03jin8uds3b.apps.googleusercontent.com",
          "client_type": 3
        }
      ],
      "api_key": [
        {
          "current_key": "AIzaSyATdwr92EIUgEzi1O-3tZHJdSsOMfPYcW4"
        }
      ],
      "services": {
        "analytics_service": {
          "status": 1
        },
        "appinvite_service": {
          "status": 2,
          "other_platform_oauth_client": [
            {
              "client_id": "254929755775-rir86q1pbhrgdcj8qr1ck03jin8uds3b.apps.googleusercontent.com",
              "client_type": 3
            }
          ]
        },
        "ads_service": {
          "status": 2
        }
      }
    }
  ],
  "configuration_version": "1"
}