{
  "buildFiles": [
    "D:\\Chand\\Digit9\\Belgium\\Sources\\AndroidBelgiumEida\\app\\src\\main\\jni\\Android.mk",
    "D:\\Chand\\Digit9\\Belgium\\Sources\\AndroidBelgiumEida\\app\\src\\main\\jni\\Application.mk"
  ],
  "cleanCommands": [
    "C:\\Users\\Chand\\AppData\\Local\\Android\\Sdk\\ndk-bundle\\ndk-build.cmd NDK_PROJECT_PATH\u003dnull APP_BUILD_SCRIPT\u003dD:\\Chand\\Digit9\\Belgium\\Sources\\AndroidBelgiumEida\\app\\src\\main\\jni\\Android.mk NDK_APPLICATION_MK\u003dD:\\Chand\\Digit9\\Belgium\\Sources\\AndroidBelgiumEida\\app\\src\\main\\jni\\Application.mk APP_ABI\u003darmeabi-v7a NDK_ALL_ABIS\u003darmeabi-v7a NDK_DEBUG\u003d0 APP_PLATFORM\u003dandroid-21 NDK_OUT\u003dD:/Chand/Digit9/Belgium/Sources/AndroidBelgiumEida/app/build/intermediates/ndkBuild/arm7/release/obj NDK_LIBS_OUT\u003dD:\\Chand\\Digit9\\Belgium\\Sources\\AndroidBelgiumEida\\app\\build\\intermediates\\ndkBuild\\arm7\\release\\lib clean"
  ],
  "libraries": {
    "VCOMDroid-arm7Release-armeabi-v7a": {
      "artifactName": "VCOMDroid",
      "buildCommand": "C:\\Users\\Chand\\AppData\\Local\\Android\\Sdk\\ndk-bundle\\ndk-build.cmd NDK_PROJECT_PATH\u003dnull APP_BUILD_SCRIPT\u003dD:\\Chand\\Digit9\\Belgium\\Sources\\AndroidBelgiumEida\\app\\src\\main\\jni\\Android.mk NDK_APPLICATION_MK\u003dD:\\Chand\\Digit9\\Belgium\\Sources\\AndroidBelgiumEida\\app\\src\\main\\jni\\Application.mk APP_ABI\u003darmeabi-v7a NDK_ALL_ABIS\u003darmeabi-v7a NDK_DEBUG\u003d0 APP_PLATFORM\u003dandroid-21 NDK_OUT\u003dD:/Chand/Digit9/Belgium/Sources/AndroidBelgiumEida/app/build/intermediates/ndkBuild/arm7/release/obj NDK_LIBS_OUT\u003dD:\\Chand\\Digit9\\Belgium\\Sources\\AndroidBelgiumEida\\app\\build\\intermediates\\ndkBuild\\arm7\\release\\lib D:/Chand/Digit9/Belgium/Sources/AndroidBelgiumEida/app/build/intermediates/ndkBuild/arm7/release/obj/local/armeabi-v7a/libVCOMDroid.so",
      "abi": "armeabi-v7a",
      "output": "D:\\Chand\\Digit9\\Belgium\\Sources\\AndroidBelgiumEida\\app\\build\\intermediates\\ndkBuild\\arm7\\release\\obj\\local\\armeabi-v7a\\libVCOMDroid.so"
    }
  }
}